CallSheet Web Search Tool,,,,,,,,,,,,,,,,,,,,,,
Search Report for: Year = 2022AND Assigned To = RRU001AND Solved By = RRU001:-Found 5 matching records,,,,,,,,,,,,,,,,,,,,,,
Callsheet,PDate,PTime,Type,Antenna,Configuration,System,Observer,ADate,ATime,AssignedBy,AssignedTo,PDescription,PDiary,SDate,STime,System,SDescription,SDiary,Status,SBy,EBy,GSE
2022.0763,2022-05-23,22:58:12,ACTION,S06,"FE 610,610 S0 OFF UNSWAP LO 540,540 IF C1-4,12 C2-4,12 32-32 ON-ON BB 16M16M16M16M 0000 51,51 OFFOFFOFFOFF GSB BW:A33 MHzFOFFTotal_Intensity- BOFF:OFFLO32:149-156CH2568 SRV AZ EL 1- 2- 3- 4-",FPS,PTP001,2022-05-24,10:59:57,SGA124,RRU001,Feed is not rotating.,Feed is not rotating. Restarted DS of fps and fecb.,2022-05-24,18:53:46,TGC,We have changed the USB-RS485 communication cable. The antenna is working presently.,USB-RS485 cable changed.,SOLVED,RRU001,RRU001,GSJ020
2022.0758,2022-05-22,14:27:25,ACTION,S06,"FE 610,610 S0 OFF UNSWAP LO 540,540 IF C1-4,12 C2-4,12 32-32 ON-ON BB 16M16M16M16M 0000 51,51 OFFOFFOFFOFF GSB BW:A33 MHzFOFFTotal_Intensity- BOFF:OFFLO32:149-156CH2568 SRV AZ EL 1- 2- 3- 4-",FPS,PTP001,2022-05-23,17:37:00,SGA124,RRU001,Feed is not rotating.,Feed is not rotating. ,2022-05-23,17:40:28,TGC,"Primary investigation suggests due to the power outage USB-RS485 cable was in hung mode. During maintenance day, We will take the S06 antenna and replace the cable. at the present antenna is working.",Restarted everything which solved the problem.,SOLVED,RRU001,RRU001,SGA124
2022.0335,2022-03-06,09:34:16,ACTION,W01,"FE 325,325 S0 OFF UNSWAP LO 255,255 IF C1-4,12 C2-4,12 32-32 ON-ON BB 16M16M16M16M 0000 51,51 OFFOFFOFFOFF GSB BW:A33 MHzFOFFTotal_Intensity- BOFF:OFFLO32:149-156CH2568 SRV AZ EL 1- 2- 3- 4-",TGC,PTP001,2022-03-06,09:36:34,ANR017,RRU001,fps and fecb sub system is showing disconnected status.,fps and fecb sub system is showing disconnected status.,2022-03-08,14:42:24,TGC,We investigated at the antenna. We also changed ANTCOM PIU for any possible communication error. We will keep this problem under our observation. ,Restarted the Device Client programs,SOLVED,RRU001,RRU001,AKB062
2022.0300,2022-02-25,01:09:43,ACTION,W01,"FE 610,610 S0 OFF UNSWAP LO 540,540 IF C1-4,12 C2-4,12 32-32 ON-ON BB 16M16M16M16M 0000 51,51 OFFOFFOFFOFF GSB BW:A33 MHzFOFFTotal_Intensity- BOFF:OFFLO32:149-156CH2568 SRV AZ EL 1- 2- 3- 4-",FPS,SKG070,2022-02-28,17:17:50,KDB001,RRU001,Feed is not rotating.,Feed is not rotating.,2022-02-28,17:25:59,TGC,"FPS system was malfunctioning, In the TGC system status window "" Feed uncalibrated and Idle"" message was coming. Due to a garbage response, the TGC FPS device client got disconnected. Friday (25/02/2022) Shri Abhay Bhumkar went to the antenna and cleared the junk data coming from the FPS system. After that, it is working.",FPS system was malfunctioning due to which deviceClient got killed,SOLVED,RRU001,RRU001,HRB001
2022.0226,2022-02-09,17:18:21,ACTION,E04,"FE 1390,1390 S0 OFF UNSWAP LO 1320,1320 IF C1-4,12 C2-4,12 32-32 ON-ON BB 16M16M16M16M 0000 51,51 OFFOFFOFFOFF GSB BW:A33 MHzFOFFTotal_Intensity- BOFF:OFFLO32:149-156CH2568 SRV AZ EL 1- 2- 3- 4-",TGC,DBB023,2022-02-09,18:56:58,BTA017,RRU001,E04 LMC down.,,2022-02-11,11:37:06,TGC,It was just a brief communication issue. We will keep the E04 LMC and OF connection under observation. ,It was a brief communication issue,SOLVED,RRU001,RRU001,MSP034
